<?xml version="1.0" encoding="UTF-8" standalone="no"?>
<svg
   width="156.19089"
   height="184.54208"
   id="screenshot-8a3de000-f244-807b-8004-9838400b5f90"
   fill="none"
   version="1.1"
   xmlns="http://www.w3.org/2000/svg"
   xmlns:svg="http://www.w3.org/2000/svg">
  <defs
     id="defs53" />
  <style
     id="style1">@font-face{font-family:'Source Code Pro';font-style:normal;font-weight:400;font-display:block;src:url(https://design.penpot.app/internal/gfonts/font/sourcecodepro/v23/HI_diYsKILxRpg3hIP6sJ7fM7PqPMcMnZFqUwX28DMyQtMRrTEUc.woff2) format('woff2');unicode-range:U+0460-052F, U+1C80-1C88, U+20B4, U+2DE0-2DFF, U+A640-A69F, U+FE2E-FE2F}@font-face{font-family:'Source Code Pro';font-style:normal;font-weight:400;font-display:block;src:url(https://design.penpot.app/internal/gfonts/font/sourcecodepro/v23/HI_diYsKILxRpg3hIP6sJ7fM7PqPMcMnZFqUwX28DMyQtM1rTEUc.woff2) format('woff2');unicode-range:U+0301, U+0400-045F, U+0490-0491, U+04B0-04B1, U+2116}@font-face{font-family:'Source Code Pro';font-style:normal;font-weight:400;font-display:block;src:url(https://design.penpot.app/internal/gfonts/font/sourcecodepro/v23/HI_diYsKILxRpg3hIP6sJ7fM7PqPMcMnZFqUwX28DMyQtMVrTEUc.woff2) format('woff2');unicode-range:U+1F00-1FFF}@font-face{font-family:'Source Code Pro';font-style:normal;font-weight:400;font-display:block;src:url(https://design.penpot.app/internal/gfonts/font/sourcecodepro/v23/HI_diYsKILxRpg3hIP6sJ7fM7PqPMcMnZFqUwX28DMyQtMprTEUc.woff2) format('woff2');unicode-range:U+0370-0377, U+037A-037F, U+0384-038A, U+038C, U+038E-03A1, U+03A3-03FF}@font-face{font-family:'Source Code Pro';font-style:normal;font-weight:400;font-display:block;src:url(https://design.penpot.app/internal/gfonts/font/sourcecodepro/v23/HI_diYsKILxRpg3hIP6sJ7fM7PqPMcMnZFqUwX28DMyQtMZrTEUc.woff2) format('woff2');unicode-range:U+0102-0103, U+0110-0111, U+0128-0129, U+0168-0169, U+01A0-01A1, U+01AF-01B0, U+0300-0301, U+0303-0304, U+0308-0309, U+0323, U+0329, U+1EA0-1EF9, U+20AB}@font-face{font-family:'Source Code Pro';font-style:normal;font-weight:400;font-display:block;src:url(https://design.penpot.app/internal/gfonts/font/sourcecodepro/v23/HI_diYsKILxRpg3hIP6sJ7fM7PqPMcMnZFqUwX28DMyQtMdrTEUc.woff2) format('woff2');unicode-range:U+0100-02AF, U+0304, U+0308, U+0329, U+1E00-1E9F, U+1EF2-1EFF, U+2020, U+20A0-20AB, U+20AD-20C0, U+2113, U+2C60-2C7F, U+A720-A7FF}@font-face{font-family:'Source Code Pro';font-style:normal;font-weight:400;font-display:block;src:url(https://design.penpot.app/internal/gfonts/font/sourcecodepro/v23/HI_diYsKILxRpg3hIP6sJ7fM7PqPMcMnZFqUwX28DMyQtMlrTA.woff2) format('woff2');unicode-range:U+0000-00FF, U+0131, U+0152-0153, U+02BB-02BC, U+02C6, U+02DA, U+02DC, U+0304, U+0308, U+0329, U+2000-206F, U+2074, U+20AC, U+2122, U+2191, U+2193, U+2212, U+2215, U+FEFF, U+FFFD}@font-face{font-family:'Source Code Pro';font-style:normal;font-weight:800;font-display:block;src:url(https://design.penpot.app/internal/gfonts/font/sourcecodepro/v23/HI_diYsKILxRpg3hIP6sJ7fM7PqPMcMnZFqUwX28DEyXtMRrTEUc.woff2) format('woff2');unicode-range:U+0460-052F, U+1C80-1C88, U+20B4, U+2DE0-2DFF, U+A640-A69F, U+FE2E-FE2F}@font-face{font-family:'Source Code Pro';font-style:normal;font-weight:800;font-display:block;src:url(https://design.penpot.app/internal/gfonts/font/sourcecodepro/v23/HI_diYsKILxRpg3hIP6sJ7fM7PqPMcMnZFqUwX28DEyXtM1rTEUc.woff2) format('woff2');unicode-range:U+0301, U+0400-045F, U+0490-0491, U+04B0-04B1, U+2116}@font-face{font-family:'Source Code Pro';font-style:normal;font-weight:800;font-display:block;src:url(https://design.penpot.app/internal/gfonts/font/sourcecodepro/v23/HI_diYsKILxRpg3hIP6sJ7fM7PqPMcMnZFqUwX28DEyXtMVrTEUc.woff2) format('woff2');unicode-range:U+1F00-1FFF}@font-face{font-family:'Source Code Pro';font-style:normal;font-weight:800;font-display:block;src:url(https://design.penpot.app/internal/gfonts/font/sourcecodepro/v23/HI_diYsKILxRpg3hIP6sJ7fM7PqPMcMnZFqUwX28DEyXtMprTEUc.woff2) format('woff2');unicode-range:U+0370-0377, U+037A-037F, U+0384-038A, U+038C, U+038E-03A1, U+03A3-03FF}@font-face{font-family:'Source Code Pro';font-style:normal;font-weight:800;font-display:block;src:url(https://design.penpot.app/internal/gfonts/font/sourcecodepro/v23/HI_diYsKILxRpg3hIP6sJ7fM7PqPMcMnZFqUwX28DEyXtMZrTEUc.woff2) format('woff2');unicode-range:U+0102-0103, U+0110-0111, U+0128-0129, U+0168-0169, U+01A0-01A1, U+01AF-01B0, U+0300-0301, U+0303-0304, U+0308-0309, U+0323, U+0329, U+1EA0-1EF9, U+20AB}@font-face{font-family:'Source Code Pro';font-style:normal;font-weight:800;font-display:block;src:url(https://design.penpot.app/internal/gfonts/font/sourcecodepro/v23/HI_diYsKILxRpg3hIP6sJ7fM7PqPMcMnZFqUwX28DEyXtMdrTEUc.woff2) format('woff2');unicode-range:U+0100-02AF, U+0304, U+0308, U+0329, U+1E00-1E9F, U+1EF2-1EFF, U+2020, U+20A0-20AB, U+20AD-20C0, U+2113, U+2C60-2C7F, U+A720-A7FF}@font-face{font-family:'Source Code Pro';font-style:normal;font-weight:800;font-display:block;src:url(https://design.penpot.app/internal/gfonts/font/sourcecodepro/v23/HI_diYsKILxRpg3hIP6sJ7fM7PqPMcMnZFqUwX28DEyXtMlrTA.woff2) format('woff2');unicode-range:U+0000-00FF, U+0131, U+0152-0153, U+02BB-02BC, U+02C6, U+02DA, U+02DC, U+0304, U+0308, U+0329, U+2000-206F, U+2074, U+20AC, U+2122, U+2191, U+2193, U+2212, U+2215, U+FEFF, U+FFFD}</style>
  <g
     id="shape-8a3de000-f244-807b-8004-9838400b5f90"
     transform="translate(-7.3759985,-9.7175684)">
    <defs
       id="defs1">
      <clipPath
         id="frame-clip-8a3de000-f244-807b-8004-9838400b5f90-render-1"
         class="frame-clip frame-clip-def">
        <rect
           rx="0"
           ry="0"
           width="210"
           height="254"
           id="rect1"
           x="0"
           y="0" />
      </clipPath>
    </defs>
    <g
       clip-path="url(#frame-clip-8a3de000-f244-807b-8004-9838400b5f90-render-1)"
       id="g53">
      <g
         class="frame-children"
         id="g52"
         transform="translate(0,-4)">
        <g
           class="text-container"
           id="shape-8a3de000-f244-807b-8004-983bd3027764"
           transform="matrix(0.95558252,0,0,0.95558252,7.6159067,-12.768856)">
          <defs
             id="defs3" />
          <path
             d="m 36.379977,220.83756 v -26.86 L 138.71991,124.95757 v -1.36 L 36.379977,54.577568 V 27.717569 L 163.1999,113.73757 v 21.08 z"
             id="fills-8a3de000-f244-807b-8004-983bd3027764"
             style="font-size:340px;font-family:'Source Code Pro';dominant-baseline:ideographic;white-space:pre;fill:#fad9d9;fill-opacity:1"
             class="fills"
             aria-label="&gt;" />
        </g>
        <g
           class="text-container"
           id="shape-8a3de000-f244-807b-8004-983841667ede">
          <defs
             id="defs10" />
          <path
             d="m 15.583993,50.135594 q -2.255998,0 -3.359998,-0.672 -1.079999,-0.672 -1.079999,-2.52 0,-0.888 0.048,-1.632 0.048,-0.744001 0.096,-1.464001 0.072,-0.744 0.072,-1.536 0,-0.48 -0.288,-0.888 -0.264,-0.432 -1.031999,-0.696 -0.7439997,-0.288 -2.1599988,-0.288 v -1.248 q 1.4159991,0 2.1599988,-0.264 0.767999,-0.288 1.031999,-0.72 0.288,-0.432 0.288,-0.888 0,-0.744 -0.072,-1.488 -0.048,-0.768 -0.096,-1.536 -0.048,-0.768 -0.048,-1.608 0,-1.848001 1.079999,-2.520001 1.104,-0.672 3.359998,-0.672 h 1.463999 v 1.128 h -1.247999 q -1.223999,0 -1.871999,0.24 -0.623999,0.216 -0.863999,0.696 -0.24,0.456001 -0.24,1.248001 0,1.032 0.072,2.136 0.072,1.08 0.072,2.208 0,1.152 -0.48,1.776 -0.455999,0.624 -1.703999,0.84 v 0.096 q 1.248,0.216 1.703999,0.84 0.48,0.624 0.48,1.776 0,1.2 -0.072,2.232001 -0.072,1.008 -0.072,2.112 0,0.768 0.24,1.248 0.24,0.48 0.863999,0.696 0.648,0.24 1.871999,0.24 h 1.247999 v 1.128 z"
             id="fills-8a3de000-f244-807b-8004-983841667ede"
             style="font-size:24px;font-family:'Source Code Pro';dominant-baseline:ideographic;white-space:pre;fill:#e34343"
             class="fills"
             aria-label="{" />
          <defs
             id="defs17" />
          <path
             d="M 39.079996,72.887591 V 60.47959 h -4.583997 v -3.216 h 13.007992 v 3.216 h -4.583998 v 12.408001 z m 17.039996,0.288 q -1.871999,0 -3.383998,-0.744 -1.511999,-0.744 -2.399998,-2.136 -0.864,-1.392 -0.864,-3.384 0,-1.968 0.888,-3.36 0.887999,-1.392 2.303998,-2.136001 1.439999,-0.768 3.047998,-0.768 1.847999,0 3.095998,0.768 1.271999,0.768001 1.895999,2.088001 0.648,1.296 0.648,2.904 0,0.504 -0.048,0.984 -0.048,0.456 -0.096,0.672 h -8.879995 v -2.52 h 6.239996 l -0.551999,0.696 q 0,-1.32 -0.552,-1.992 -0.552,-0.696 -1.631999,-0.696 -0.839999,0 -1.439999,0.36 -0.576,0.36 -0.911999,1.128 -0.312,0.744 -0.312,1.872 0,1.176 0.384,1.92 0.407999,0.744 1.175999,1.104 0.791999,0.336 1.919999,0.336 0.767999,0 1.463999,-0.192 0.719999,-0.192 1.511999,-0.576 l 1.247999,2.28 q -1.031999,0.648 -2.303999,1.032 -1.271999,0.36 -2.447998,0.36 z m 14.712001,0 q -1.895999,0 -3.407998,-0.744 -1.511999,-0.744 -2.399998,-2.136 -0.888,-1.392 -0.888,-3.384 0,-1.992 0.96,-3.384 0.983999,-1.392 2.567998,-2.136001 1.607999,-0.744 3.431998,-0.744 1.439999,0 2.591998,0.456 1.176,0.432 1.919999,1.152001 l -1.751999,2.352 q -0.671999,-0.48 -1.295999,-0.672 -0.599999,-0.216 -1.223999,-0.216 -0.959999,0 -1.703999,0.408 -0.744,0.384 -1.151999,1.104 -0.408,0.72 -0.408,1.68 0,0.984 0.384,1.704 0.407999,0.696 1.103999,1.104 0.72,0.384 1.631999,0.384 0.911999,0 1.655999,-0.336 0.767999,-0.336 1.391999,-0.744 l 1.511999,2.4 q -1.079999,0.912 -2.399998,1.344 -1.32,0.408 -2.519999,0.408 z m 7.800006,-0.288 V 56.13559 h 3.839998 v 3.984 l -0.24,2.208001 h 0.096 q 0.623999,-0.624001 1.583999,-1.152001 0.959999,-0.528 2.279998,-0.528 2.015999,0 2.927998,1.32 0.912,1.296001 0.912,3.552001 v 7.368 h -3.839998 v -6.888 q 0,-1.08 -0.336,-1.584 -0.335999,-0.504 -1.223999,-0.504 -0.647999,0 -1.127999,0.288 -0.48,0.264 -1.031999,0.768 v 7.92 z m 14.399994,0 V 60.93559 h 3.119998 l 0.264,1.512001 h 0.096 q 0.743999,-0.720001 1.727999,-1.248001 1.007999,-0.552 2.352,-0.552 1.992,0 2.904,1.32 0.936,1.296001 0.936,3.552001 v 7.368 h -3.84 v -6.888 q 0,-1.08 -0.336,-1.584 -0.336002,-0.504 -1.224001,-0.504 -0.648,0 -1.127999,0.288 -0.48,0.264 -1.032,0.768 v 7.92 z m 19.271997,0 v -8.952 h -4.68 V 60.93559 h 8.52 v 11.952001 z m 1.776,-13.704001 q -1.08,0 -1.8,-0.624 -0.696,-0.624 -0.696,-1.656 0,-1.032 0.696,-1.656 0.72,-0.648 1.8,-0.648 1.08,0 1.776,0.648 0.72,0.624 0.72,1.656 0,1.032 -0.72,1.656 -0.696,0.624 -1.776,0.624 z m 14.352,13.992001 q -1.896,0 -3.408,-0.744 -1.512,-0.744 -2.39999,-2.136 -0.888,-1.392 -0.888,-3.384 0,-1.992 0.96,-3.384 0.98399,-1.392 2.56799,-2.136001 1.608,-0.744 3.432,-0.744 1.44,0 2.592,0.456 1.176,0.432 1.92,1.152001 l -1.752,2.352 q -0.672,-0.48 -1.296,-0.672 -0.6,-0.216 -1.224,-0.216 -0.96,0 -1.704,0.408 -0.744,0.384 -1.152,1.104 -0.408,0.72 -0.408,1.68 0,0.984 0.384,1.704 0.408,0.696 1.104,1.104 0.72,0.384 1.632,0.384 0.912,0 1.656,-0.336 0.768,-0.336 1.392,-0.744 l 1.512,2.4 q -1.08,0.912 -2.4,1.344 -1.32,0.408 -2.52,0.408 z m 11.448,0 q -1.224,0 -2.088,-0.504 -0.864,-0.504 -1.344,-1.32 -0.456,-0.816 -0.456,-1.824 0,-1.992 1.752,-3.048 1.776,-1.08 5.952,-1.32 -0.072,-0.48 -0.36,-0.792 -0.288,-0.336 -0.816,-0.504 -0.504,-0.192 -1.248,-0.192 -0.528,0 -1.104,0.144 -0.552,0.12 -1.152,0.36 -0.576,0.24 -1.272,0.576 l -1.368,-2.52 q 0.888,-0.480001 1.8,-0.840001 0.912,-0.36 1.872,-0.552 0.96,-0.192 1.968,-0.192 1.704,0 2.92799,0.6 1.224,0.576 1.896,1.800001 0.672,1.2 0.672,3.096 v 6.744 h -3.12 l -0.264,-1.296 h -0.096 q -0.88799,0.672 -1.94399,1.128 -1.056,0.456 -2.208,0.456 z m 1.224,-2.952 q 0.768,0 1.392,-0.288 0.648,-0.312 1.2,-0.744 v -1.728 q -1.608,0.048 -2.496,0.312 -0.888,0.24 -1.224,0.624 -0.336,0.36 -0.336,0.816 0,0.336 0.168,0.576 0.192,0.216 0.504,0.336 0.336,0.096 0.792,0.096 z m 17.328,2.952 q -2.32799,0 -3.50399,-1.392 -1.176,-1.416 -1.176,-3.696 V 59.11159 h -3.648 v -2.976 h 7.46399 v 12.096001 q 0,1.056 0.6,1.464 0.6,0.408 1.272,0.408 0.408,0 0.816,-0.096 0.432,-0.096 0.984,-0.288 l 0.84,2.832 q -0.936,0.288 -1.728,0.456 -0.768,0.168 -1.92,0.168 z"
             id="text17"
             style="font-weight:800;font-size:24px;font-family:'Source Code Pro';dominant-baseline:ideographic;white-space:pre;fill:#000000"
             class="fills"
             aria-label="  Technical" />
          <defs
             id="defs24" />
          <path
             d="m 35.888002,99.287592 -2.015999,-15.624 h 3.959998 l 0.312,8.04 q 0.024,0.648 0.024,1.32 0,0.648 0,1.32 0.024,0.648 0.024,1.32 h 0.096 q 0.096,-0.672 0.215999,-1.32 0.144,-0.672 0.288,-1.32 0.144,-0.672 0.264,-1.32 l 0.96,-4.08 h 2.327998 l 0.888,4.08 q 0.12,0.624 0.24,1.272 0.144,0.648 0.288,1.32 0.143999,0.672 0.239999,1.368 h 0.096 q 0,-0.696 0,-1.368 0.024,-0.672 0.024,-1.296 0,-0.648 0.024,-1.296 l 0.312,-8.04 h 3.695998 l -1.871999,15.624 h -4.031998 l -0.815999,-4.56 q -0.12,-0.768 -0.24,-1.536 -0.096,-0.792 -0.144,-1.488 h -0.072 q -0.048,0.696 -0.168,1.488 -0.096,0.768 -0.216,1.536 l -0.767999,4.56 z m 14.952001,0 v -11.952 h 3.143998 l 0.288,2.568 h 0.096 q 0.864,-1.464 2.111999,-2.16 1.247999,-0.696 2.639999,-0.696 0.815999,0 1.295999,0.144 0.48,0.12 0.983999,0.336 l -0.767999,3.216 q -0.528,-0.192 -0.984,-0.264 -0.456,-0.096 -1.103999,-0.096 -1.08,0 -2.111999,0.648 -1.031999,0.624 -1.775999,2.184 v 6.072 z m 18.263999,0 v -8.952 h -4.679997 v -3 H 72.944 v 11.952 z m 1.775999,-13.704 q -1.079999,0 -1.799999,-0.624 -0.695999,-0.624 -0.695999,-1.656 0,-1.032 0.695999,-1.656 0.72,-0.648 1.799999,-0.648 1.08,0 1.776,0.648 0.719999,0.624 0.719999,1.656 0,1.032 -0.719999,1.656 -0.696,0.624 -1.776,0.624 z m 15.408001,13.992 q -1.919998,0 -3.071998,-0.648 -1.151999,-0.672 -1.679999,-1.872 -0.504,-1.2 -0.504,-2.784 v -3.936 h -2.927998 v -2.856 l 3.095998,-0.144 0.504,-3.624 h 3.167998 v 3.624 h 4.871998 v 3 h -4.871998 v 3.888 q 0,0.864 0.264,1.392 0.264,0.528 0.792,0.744 0.527999,0.216 1.343999,0.216 0.648,0 1.199999,-0.096 0.576,-0.12 1.08,-0.312 l 0.671999,2.784 q -0.791999,0.216 -1.775999,0.408 -0.959999,0.216 -2.159999,0.216 z m 11.616004,-0.288 v -8.952 h -4.679998 v -3 H 101.744 v 11.952 z m 1.775999,-13.704 q -1.08,0 -1.799999,-0.624 -0.696,-0.624 -0.696,-1.656 0,-1.032 0.696,-1.656 0.719999,-0.648 1.799999,-0.648 1.079995,0 1.775995,0.648 0.72,0.624 0.72,1.656 0,1.032 -0.72,1.656 -0.696,0.624 -1.775995,0.624 z m 7.752005,13.704 v -11.952 h 3.12 l 0.264,1.512 h 0.096 q 0.744,-0.72 1.728,-1.248 1.008,-0.552 2.352,-0.552 1.99199,0 2.90399,1.32 0.936,1.296 0.936,3.552 v 7.368 h -3.83999 v -6.888 q 0,-1.08 -0.336,-1.584 -0.336,-0.504 -1.224,-0.504 -0.648,0 -1.128,0.288 -0.48,0.264 -1.032,0.768 v 7.92 z m 19.32,5.015998 q -1.512,0 -2.736,-0.312 -1.224,-0.312 -1.944,-0.984 -0.72,-0.648 -0.72,-1.728 0,-0.744 0.456,-1.319998 0.48,-0.576 1.368,-1.032 v -0.096 q -0.48,-0.312 -0.84,-0.792 -0.36,-0.504 -0.36,-1.248 0,-0.6 0.408,-1.2 0.408,-0.6 1.032,-1.032 v -0.096 q -0.648,-0.456 -1.128,-1.248 -0.48,-0.792 -0.48,-1.824 0,-1.464 0.72,-2.424 0.744,-0.96 1.92,-1.44 1.2,-0.48 2.568,-0.48 1.128,0 1.992,0.288 h 4.84799 v 2.784 h -2.27999 q 0.168,0.24 0.288,0.624 0.144,0.36 0.144,0.768 0,1.392 -0.672,2.28 -0.648,0.888 -1.776,1.32 -1.128,0.408 -2.544,0.408 -0.336,0 -0.744,-0.048 -0.384,-0.048 -0.84,-0.168 -0.24,0.192 -0.36,0.36 -0.096,0.144 -0.096,0.432 0,0.408 0.456,0.6 0.48,0.192 1.512,0.192 h 2.112 q 2.352,0 3.624,0.72 1.29599,0.72 1.29599,2.352 0,1.271998 -0.88799,2.231998 -0.888,0.984 -2.52,1.536 -1.608,0.576 -3.816,0.576 z m 0.264,-11.087998 q 0.456,0 0.816,-0.192 0.36,-0.216 0.576,-0.624 0.24,-0.408 0.24,-1.008 0,-0.6 -0.24,-0.984 -0.216,-0.408 -0.576,-0.6 -0.36,-0.216 -0.816,-0.216 -0.432,0 -0.816,0.216 -0.36,0.192 -0.576,0.6 -0.216,0.384 -0.216,0.984 0,0.6 0.216,1.008 0.216,0.408 0.576,0.624 0.384,0.192 0.816,0.192 z m 0.312,8.687998 q 0.888,0 1.56,-0.168 0.672,-0.144 1.056,-0.456 0.384,-0.288 0.384,-0.648 0,-0.528 -0.504,-0.671998 -0.504,-0.144 -1.464,-0.144 h -1.368 q -0.672,0 -1.08,-0.048 -0.408,-0.024 -0.72,-0.12 -0.384,0.264 -0.576,0.479998 -0.168,0.24 -0.168,0.552 0,0.624 0.792,0.912 0.792,0.312 2.088,0.312 z"
             id="text24"
             style="font-weight:800;font-size:24px;font-family:'Source Code Pro';dominant-baseline:ideographic;white-space:pre;fill:#000000"
             class="fills"
             aria-label="  Writing" />
          <defs
             id="defs31" />
          <defs
             id="defs38" />
          <path
             d="m 39.703995,125.97559 q -1.079999,0 -1.991998,-0.384 -0.912,-0.408 -1.439999,-1.152 -0.528,-0.744 -0.528,-1.776 0,-1.968 1.967999,-2.976 1.967998,-1.032 6.479996,-1.392 -0.024,-0.792 -0.336,-1.464 -0.288,-0.672 -0.96,-1.056 -0.671999,-0.408 -1.799998,-0.408 -0.744,0 -1.487999,0.216 -0.72,0.192 -1.392,0.528 -0.647999,0.312 -1.199999,0.648 l -0.767999,-1.344 q 0.575999,-0.384 1.391999,-0.768 0.839999,-0.408 1.799999,-0.648 0.959999,-0.264 1.991998,-0.264 1.607999,0 2.639999,0.6 1.055999,0.6 1.559999,1.68 0.527999,1.056 0.527999,2.52 v 7.152 h -1.607999 l -0.167999,-1.584 h -0.072 q -0.96,0.768 -2.159999,1.32 -1.199999,0.552 -2.447999,0.552 z m 0.528,-1.584 q 1.008,0 1.991999,-0.456 0.983999,-0.456 1.967999,-1.272 v -3.072 q -2.495999,0.216 -3.935998,0.6 -1.415999,0.384 -2.015999,0.984 -0.575999,0.576 -0.575999,1.344 0,0.648 0.36,1.08 0.359999,0.408 0.935999,0.6 0.6,0.192 1.271999,0.192 z m 15.407999,1.584 q -1.703999,0 -3.191998,-0.552 -1.487999,-0.552 -2.543998,-1.272 l 0.911999,-1.296 q 1.008,0.72 2.231999,1.152 1.223999,0.432 2.831998,0.432 1.487999,0 2.207999,-0.552 0.743999,-0.552 0.743999,-1.272 0,-0.336 -0.144,-0.624 -0.12,-0.288 -0.503999,-0.552 -0.36,-0.264 -1.08,-0.504 -0.719999,-0.24 -1.919999,-0.48 -2.279998,-0.48 -3.431997,-1.296 -1.128,-0.816 -1.128,-2.112 0,-1.416 1.224,-2.352 1.223999,-0.96 3.623997,-0.96 1.343999,0 2.591999,0.456 1.247999,0.432 2.111998,1.032 l -0.959999,1.272 q -0.792,-0.576 -1.799999,-0.888 -1.007999,-0.336 -2.111999,-0.336 -1.007999,0 -1.607999,0.24 -0.575999,0.216 -0.839999,0.6 -0.24,0.384 -0.24,0.84 0,0.744 0.792,1.176 0.815999,0.408 2.591998,0.768 1.943999,0.408 2.975998,0.912 1.055999,0.504 1.439999,1.152 0.408,0.648 0.408,1.536 0,0.96 -0.6,1.752 -0.599999,0.768 -1.751999,1.248 -1.151999,0.48 -2.831998,0.48 z m 27.263998,0 q -1.079999,0 -1.991998,-0.384 -0.912,-0.408 -1.439999,-1.152 -0.528,-0.744 -0.528,-1.776 0,-1.968 1.967999,-2.976 1.967998,-1.032 6.479996,-1.392 -0.024,-0.792 -0.336,-1.464 -0.288,-0.672 -0.96,-1.056 -0.671999,-0.408 -1.799998,-0.408 -0.744,0 -1.488,0.216 -0.719999,0.192 -1.391999,0.528 -0.647999,0.312 -1.199999,0.648 l -0.767999,-1.344 q 0.575999,-0.384 1.391999,-0.768 0.839999,-0.408 1.799999,-0.648 0.959999,-0.264 1.991998,-0.264 1.607999,0 2.639999,0.6 1.055999,0.6 1.559999,1.68 0.527999,1.056 0.527999,2.52 v 7.152 h -1.607999 l -0.168,-1.584 h -0.072 q -0.96,0.768 -2.159999,1.32 -1.199999,0.552 -2.447999,0.552 z m 0.528,-1.584 q 1.007999,0 1.991999,-0.456 0.983999,-0.456 1.967999,-1.272 v -3.072 q -2.495999,0.216 -3.935998,0.6 -1.415999,0.384 -2.015999,0.984 -0.575999,0.576 -0.575999,1.344 0,0.648 0.359999,1.08 0.36,0.408 0.936,0.6 0.6,0.192 1.271999,0.192 z"
             id="text38"
             style="font-size:24px;font-family:'Source Code Pro';dominant-baseline:ideographic;white-space:pre;fill:#000000"
             class="fills"
             aria-label="as a" />
          <defs
             id="defs45" />
          <path
             d="m 40.927999,152.3756 q -1.559999,0 -3.143998,-0.552 -1.559999,-0.576 -2.855999,-1.704 l 2.183999,-2.616 q 0.912,0.696 1.943999,1.128 1.056,0.432 2.135999,0.432 1.031999,0 1.487999,-0.312 0.48,-0.336 0.48,-0.816 0,-0.504 -0.288,-0.792 -0.264,-0.312 -0.792,-0.528 -0.527999,-0.24 -1.247999,-0.528 L 38.84,145.2476 q -0.887999,-0.336 -1.655999,-0.912 -0.743999,-0.576 -1.199999,-1.416 -0.456,-0.864 -0.456,-1.992 0,-1.32001 0.72,-2.37601 0.743999,-1.08 2.063999,-1.728 1.319999,-0.648 3.071998,-0.648 1.391999,0 2.759998,0.528 1.392,0.504 2.495999,1.536 l -1.919999,2.42401 q -0.84,-0.57601 -1.631999,-0.86401 -0.792,-0.312 -1.919999,-0.312 -0.768,0 -1.271999,0.312 -0.48,0.288 -0.48,0.91201 0,0.408 0.288,0.696 0.312,0.264 0.863999,0.504 0.576,0.216 1.344,0.504 l 1.847999,0.768 q 1.055999,0.384 1.775999,0.984 0.743999,0.576 1.127999,1.392 0.408,0.792 0.408,1.896 0,1.32 -0.72,2.448 -0.696,1.104 -2.063999,1.8 -1.367999,0.672 -3.359998,0.672 z m 15.192001,0 q -1.871999,0 -3.383998,-0.744 -1.511999,-0.744 -2.399999,-2.136 -0.863999,-1.392 -0.863999,-3.384 0,-1.968 0.887999,-3.36 0.888,-1.392 2.303999,-2.136 1.439999,-0.76801 3.047998,-0.76801 1.847999,0 3.095999,0.76801 1.271999,0.768 1.895999,2.088 0.647999,1.296 0.647999,2.904 0,0.504 -0.048,0.984 -0.048,0.456 -0.096,0.672 h -8.879995 v -2.52 h 6.239997 l -0.552,0.696 q 0,-1.32 -0.552,-1.992 -0.551999,-0.696 -1.631999,-0.696 -0.839999,0 -1.439999,0.36 -0.576,0.36 -0.911999,1.128 -0.312,0.744 -0.312,1.872 0,1.176 0.384,1.92 0.407999,0.744 1.175999,1.104 0.792,0.336 1.919999,0.336 0.767999,0 1.463999,-0.192 0.72,-0.192 1.511999,-0.576 l 1.248,2.28 q -1.032,0.648 -2.303999,1.032 -1.271999,0.36 -2.447999,0.36 z m 9.120005,-0.288 v -11.95201 h 3.143998 l 0.288,2.56801 h 0.096 q 0.863999,-1.464 2.111998,-2.16 1.248,-0.69601 2.639999,-0.69601 0.816,0 1.295999,0.144 0.48,0.12 0.984,0.336 l -0.768,3.21601 q -0.528,-0.192 -0.983999,-0.264 -0.456,-0.096 -1.104,-0.096 -1.079999,0 -2.111998,0.648 -1.032,0.624 -1.775999,2.184 v 6.072 z m 16.824,0 -4.391998,-11.95201 h 3.815998 l 1.727999,5.42401 q 0.288,0.888 0.528,1.824 0.24,0.912 0.504,1.872 h 0.096 q 0.263999,-0.96 0.503999,-1.872 0.24,-0.936 0.504,-1.824 l 1.727999,-5.42401 H 90.728 l -4.271998,11.95201 z m 15.840001,0 v -8.952 h -4.679998 v -3.00001 H 101.744 v 11.95201 z m 1.775999,-13.70401 q -1.08,0 -1.799999,-0.624 -0.696,-0.624 -0.696,-1.656 0,-1.032 0.696,-1.656 0.719999,-0.648 1.799999,-0.648 1.079995,0 1.775995,0.648 0.72,0.624 0.72,1.656 0,1.032 -0.72,1.656 -0.696,0.624 -1.775995,0.624 z m 14.352005,13.99201 q -1.896,0 -3.408,-0.744 -1.512,-0.744 -2.4,-2.136 -0.888,-1.392 -0.888,-3.384 0,-1.992 0.96,-3.384 0.984,-1.392 2.568,-2.136 1.608,-0.74401 3.432,-0.74401 1.44,0 2.59199,0.456 1.176,0.43201 1.92,1.15201 l -1.752,2.352 q -0.672,-0.48 -1.29599,-0.672 -0.6,-0.216 -1.224,-0.216 -0.96,0 -1.704,0.408 -0.744,0.384 -1.152,1.104 -0.408,0.72 -0.408,1.68 0,0.984 0.384,1.704 0.408,0.696 1.104,1.104 0.72,0.384 1.632,0.384 0.912,0 1.65599,-0.336 0.768,-0.336 1.392,-0.744 l 1.512,2.4 q -1.08,0.912 -2.4,1.344 -1.31999,0.408 -2.51999,0.408 z m 14.088,0 q -1.872,0 -3.384,-0.744 -1.512,-0.744 -2.4,-2.136 -0.864,-1.392 -0.864,-3.384 0,-1.968 0.888,-3.36 0.888,-1.392 2.304,-2.136 1.44,-0.76801 3.048,-0.76801 1.848,0 3.096,0.76801 1.272,0.768 1.896,2.088 0.64799,1.296 0.64799,2.904 0,0.504 -0.048,0.984 -0.048,0.456 -0.096,0.672 h -8.87999 v -2.52 h 6.24 l -0.552,0.696 q 0,-1.32 -0.552,-1.992 -0.552,-0.696 -1.632,-0.696 -0.84,0 -1.44,0.36 -0.576,0.36 -0.912,1.128 -0.312,0.744 -0.312,1.872 0,1.176 0.384,1.92 0.408,0.744 1.176,1.104 0.792,0.336 1.92,0.336 0.768,0 1.464,-0.192 0.72,-0.192 1.512,-0.576 l 1.248,2.28 q -1.032,0.648 -2.304,1.032 -1.272,0.36 -2.448,0.36 z"
             id="text45"
             style="font-weight:800;font-size:24px;font-family:'Source Code Pro';dominant-baseline:ideographic;white-space:pre;fill:#000000"
             class="fills"
             aria-label="  Service" />
          <defs
             id="defs52" />
          <path
             d="m 7.3759985,182.13559 v -1.128 h 1.2239992 q 1.2479992,0 1.8719993,-0.24 0.647999,-0.216 0.887999,-0.696 0.24,-0.48 0.24,-1.248 0,-1.104 -0.072,-2.112 -0.072,-1.032 -0.072,-2.232 0,-1.152 0.456,-1.776 0.455999,-0.624 1.703999,-0.84 v -0.096 q -1.248,-0.216 -1.703999,-0.84 -0.456,-0.624 -0.456,-1.776 0,-1.128 0.072,-2.208 0.072,-1.104 0.072,-2.136 0,-0.792 -0.24,-1.248 -0.24,-0.48 -0.887999,-0.696 -0.6240001,-0.24 -1.8719993,-0.24 H 7.3759985 v -1.128 h 1.4639991 q 2.2559984,0 3.3359974,0.672 1.08,0.672 1.08,2.52 0,0.84 -0.048,1.608 -0.048,0.768 -0.12,1.536 -0.048,0.744 -0.048,1.488 0,0.456 0.264,0.888 0.288,0.432 1.031999,0.72 0.768,0.264 2.183999,0.264 v 1.248 q -1.415999,0 -2.183999,0.288 -0.743999,0.264 -1.031999,0.696 -0.264,0.408 -0.264,0.888 0,0.792 0.048,1.536 0.072,0.72 0.12,1.464 0.048,0.744 0.048,1.632 0,1.848 -1.08,2.52 -1.079999,0.672 -3.3359974,0.672 z"
             id="text52"
             style="font-size:24px;font-family:'Source Code Pro';dominant-baseline:ideographic;white-space:pre;fill:#e34343"
             class="fills"
             aria-label="}" />
        </g>
      </g>
    </g>
  </g>
</svg>
